…
  - The R function `vcf_remove_duplicates` to remove duplicates from VCF
    is given in [this file](R/scripts.R)

<!-- end list -->

``` r
## usage 
source("./R/scripts.R")

vcf_uniq_pos <- vcf_remove_duplicates(vcf_file = "data/duplicates.vcf.gz" ,keep_first_last_and_random = F)
vcf_uniq_pos
```

    ## # A tibble: 19,748 x 7
    ## # Groups:   CHROM, POS [19,748]
    ##    CHROM     POS ID        REF   ALT    QUAL FILTER
    ##    <dbl>   <dbl> <chr>     <chr> <chr> <dbl> <chr> 
    ##  1     1 1020639 1:1020639 C     T       118 PASS  
    ##  2     1 1097335 1:1097335 T     G       422 PASS  
    ##  3     1 1223385 1:1223385 G     C       292 PASS  
    ##  4     1 1288583 1:1288583 C     G       405 PASS  
    ##  5     1 1504560 1:1504560 T     A       242 PASS  
    ##  6     1 1695075 1:1695075 G     T       183 PASS  
    ##  7     1 1881510 1:1881510 C     T       455 PASS  
    ##  8     1 1894751 1:1894751 G     A       446 PASS  
    ##  9     1 2142731 1:2142731 C     G       315 PASS  
    ## 10     1 2276371 1:2276371 C     T       166 PASS  
    ## # … with 19,738 more rows

``` r
vcf_first_last_and_a_random <- vcf_remove_duplicates(vcf_file = "data/duplicates.vcf.gz" ,keep_first_last_and_random = T)
vcf_first_last_and_a_random
```

    ## # A tibble: 19,764 x 7
    ## # Groups:   CHROM, POS [19,748]
    ##    CHROM     POS ID        REF   ALT    QUAL FILTER
    ##    <dbl>   <dbl> <chr>     <chr> <chr> <dbl> <chr> 
    ##  1     1 1020639 1:1020639 C     T       118 PASS  
    ##  2     1 1097335 1:1097335 T     G       422 PASS  
    ##  3     1 1223385 1:1223385 G     C       292 PASS  
    ##  4     1 1288583 1:1288583 C     G       405 PASS  
    ##  5     1 1504560 1:1504560 T     A       242 PASS  
    ##  6     1 1695075 1:1695075 G     T       183 PASS  
    ##  7     1 1881510 1:1881510 C     T       455 PASS  
    ##  8     1 1894751 1:1894751 G     A       446 PASS  
    ##  9     1 2142731 1:2142731 C     G       315 PASS  
    ## 10     1 2276371 1:2276371 C     T       166 PASS  
    ## # … with 19,754 more rows
…
**Answer**:

``` r
library(magrittr)


tbl <- tibble::tibble(x = abs(rnorm(100)*100))

tbl %>% dplyr::mutate(rounded = round(x, digits = 5))
```

    ## # A tibble: 100 x 2
    ##        x rounded
    ##    <dbl>   <dbl>
    ##  1  38.0    38.0
    ##  2  51.3    51.3
    ##  3  11.8    11.8
    ##  4  24.0    24.0
    ##  5  45.8    45.8
    ##  6  69.3    69.3
    ##  7  16.3    16.3
    ##  8 126.    126. 
    ##  9  52.8    52.8
    ## 10  69.9    69.9
    ## # … with 90 more rows
…
